{
    "1": {
        "id": "000001",
        "date": "20220428145314",
        "src": "1.jpg",
        "author": "test"
    },

    "2": {
        "id": "000002",
        "date": "20211225063000",
        "src": "2.jpg",
        "author": "ironveil"
    },

    "3": {
        "id": "000003",
        "date": "20220206184501",
        "src": "3.jpg",
        "author": "bob"
    }
}